[
    {"blog_title": "Angular2", "blog_desc": "this is Angular2 blog", "blog_image": "./src/images/banner-class.jpg"},
    {"blog_title": "Angularjs", "blog_desc": "this is Angular2 blog", "blog_image": "./src/images/banner-class.jpg"},
    {"blog_title": "Angular4", "blog_desc": "this is Angular2 blog", "blog_image": "./src/images/banner-class.jpg"}
]
